{
    "page": 1,
    "total_results": 1623,
    "total_pages": 82,
    "results": [{
        "popularity": 20.371,
        "id": 49529,
        "video": false,
        "vote_count": 3835,
        "vote_average": 6.2,
        "title": "John Carter",
        "release_date": "2012-03-07",
        "original_language": "en",
        "original_title": "John Carter",
        "genre_ids": [28, 12, 878],
        "backdrop_path": "\/ubNevniKd5NYo60DqYIQ29T0uyB.jpg",
        "adult": false,
        "overview": "John Carter is a war-weary, former military captain who's inexplicably transported to the mysterious and exotic planet of Barsoom (Mars) and reluctantly becomes embroiled in an epic conflict. It's a world on the brink of collapse, and Carter rediscovers his humanity when he realizes the survival of Barsoom and its people rests in his hands.",
        "poster_path": "\/rRnc3XUGFLeQScHiMmdqqsyPpT9.jpg"
    }, {
        "popularity": 16.637,
        "vote_count": 12663,
        "video": false,
        "poster_path": "\/h3VxEVUOoBZmo79O8RqKvyGiqmE.jpg",
        "id": 245891,
        "adult": false,
        "backdrop_path": "\/ff2ti5DkA9UYLzyqhQfI2kZqEuh.jpg",
        "original_language": "en",
        "original_title": "John Wick",
        "genre_ids": [28, 53],
        "title": "John Wick",
        "vote_average": 7.3,
        "overview": "Ex-hitman John Wick comes out of retirement to track down the gangsters that took everything from him.",
        "release_date": "2014-10-22"
    }, {
        "popularity": 34.698,
        "vote_count": 4965,
        "video": false,
        "poster_path": "\/ziEuG1essDuWuC5lpWUaw1uXY2O.jpg",
        "id": 458156,
        "adult": false,
        "backdrop_path": "\/vVpEOvdxVBP2aV166j5Xlvb5Cdc.jpg",
        "original_language": "en",
        "original_title": "John Wick: Chapter 3 - Parabellum",
        "genre_ids": [28, 80, 53],
        "title": "John Wick: Chapter 3 - Parabellum",
        "vote_average": 7.3,
        "overview": "Super-assassin John Wick returns with a $14 million price tag on his head and an army of bounty-hunting killers on his trail. After killing a member of the shadowy international assassin’s guild, the High Table, John Wick is excommunicado, but the world’s most ruthless hit men and women await his every turn.",
        "release_date": "2019-05-15"
    }, {
        "popularity": 29.769,
        "vote_count": 7802,
        "video": false,
        "poster_path": "\/vn4vJSzAvkHeVp6TSnjppotoLqQ.jpg",
        "id": 324552,
        "adult": false,
        "backdrop_path": "\/fRLftkwv8jm3DLxXOf2NbngHjPB.jpg",
        "original_language": "en",
        "original_title": "John Wick: Chapter 2",
        "genre_ids": [28, 80, 53],
        "title": "John Wick: Chapter 2",
        "vote_average": 7.1,
        "overview": "John Wick is forced out of retirement by a former associate looking to seize control of a shadowy international assassins’ guild. Bound by a blood oath to aid him, Wick travels to Rome and does battle against some of the world’s most dangerous killers.",
        "release_date": "2017-02-08"
    }, {
        "popularity": 13.173,
        "vote_count": 1325,
        "video": false,
        "poster_path": "\/xEE91LvXiqgs7Hmdl44LCzHtFf6.jpg",
        "id": 8470,
        "adult": false,
        "backdrop_path": "\/6EM4kHDYTc5RA8SCGtecaEH7Khj.jpg",
        "original_language": "en",
        "original_title": "John Q",
        "genre_ids": [80, 18, 53],
        "title": "John Q",
        "vote_average": 7.1,
        "overview": "John Quincy Archibald is a father and husband whose son is diagnosed with an enlarged heart and then finds out he cannot receive a transplant because HMO insurance will not cover it. Therefore, he decides to take a hospital full of patients hostage until the hospital puts his son's name on the donor's list.",
        "release_date": "2002-02-15"
    }, {
        "popularity": 12.944,
        "id": 22971,
        "video": false,
        "vote_count": 3129,
        "vote_average": 6.8,
        "title": "Dear John",
        "release_date": "2010-02-04",
        "original_language": "en",
        "original_title": "Dear John",
        "genre_ids": [18, 10749, 10752],
        "backdrop_path": "\/9lpGLWrRxpDlqvO5DVjYkJN1Gzz.jpg",
        "adult": false,
        "overview": "While Sergeant John Tyree is home on two weeks leave from Germany, he meets Savannah after he dives into the ocean to retrieve Savannah's purse that had fallen off a pier. John eventually falls in love with Savannah, who promises to write to him until he returns from overseas.",
        "poster_path": "\/guSvICQojnbrWKQCACI451ZS342.jpg"
    }, {
        "popularity": 15.5,
        "vote_count": 2588,
        "video": false,
        "poster_path": "\/oS3zTDxqHtyKDidHHvG66P7Mcg.jpg",
        "id": 492,
        "adult": false,
        "backdrop_path": "\/2duvg8bPkSKq5pekqzBgwyCYAxI.jpg",
        "original_language": "en",
        "original_title": "Being John Malkovich",
        "genre_ids": [35, 18, 14],
        "title": "Being John Malkovich",
        "vote_average": 7.4,
        "overview": "One day at work, unsuccessful puppeteer Craig finds a portal into the head of actor John Malkovich. The portal soon becomes a passion for anybody who enters its mad and controlling world of overtaking another human body.",
        "release_date": "1999-10-29"
    }, {
        "popularity": 8.179,
        "vote_count": 9,
        "video": false,
        "poster_path": "\/zwtOfT2hUs9TjqOnqj40JyJ71Ke.jpg",
        "id": 658199,
        "adult": false,
        "backdrop_path": "\/mGkCPWqHAgRzDomRPKfZjh8wLIs.jpg",
        "original_language": "en",
        "original_title": "John Henry",
        "genre_ids": [18, 53],
        "title": "John Henry",
        "vote_average": 4.9,
        "overview": "Ex-gang member John Henry is a quiet man with a violent past. When two immigrant kids on the run from his former South Los Angeles gang leader stumble into his life, John is forced to reconcile with his past in order to try and give them a future.",
        "release_date": "2020-01-24"
    }, {
        "popularity": 13.775,
        "id": 9293,
        "video": false,
        "vote_count": 908,
        "vote_average": 6,
        "title": "John Tucker Must Die",
        "release_date": "2006-07-27",
        "original_language": "en",
        "original_title": "John Tucker Must Die",
        "genre_ids": [35, 10749],
        "backdrop_path": "\/gyNJAyxdYYi2rNYIqTi771yrVws.jpg",
        "adult": false,
        "overview": "After discovering they are all dating the same same guy, three popular students from different cliques band together for revenge, so they enlist the help of a new gal in town and conspire to break the jerk's heart, while destroying his reputation.",
        "poster_path": "\/lIAIFO6rosqiIpCR0xk3nf5t0oZ.jpg"
    }, {
        "popularity": 7.011,
        "vote_count": 59,
        "video": false,
        "poster_path": "\/xkDyyA8jfe79pS07SdCsc05VGTi.jpg",
        "id": 197725,
        "adult": false,
        "backdrop_path": "\/ajAqJYljcdLZobsJtr5VDdE7O14.jpg",
        "original_language": "en",
        "original_title": "John Henry",
        "genre_ids": [16, 18, 10751],
        "title": "John Henry",
        "vote_average": 7.5,
        "overview": "A larger-than-life tale about the African-American hero born with a hammer in his hand. Join John Henry on a scenic journey from cotton country to the wilderness, where he finds men of all colors working together to build a great railroad.",
        "release_date": "2000-05-27"
    }, {
        "popularity": 8.437,
        "vote_count": 20,
        "video": false,
        "poster_path": "\/cYZFj5DeKduURJEGVBpVmS92cAS.jpg",
        "id": 544003,
        "adult": false,
        "backdrop_path": "\/i3ErSy9O8NGNvb0S3Xv6Om8dk5z.jpg",
        "original_language": "en",
        "original_title": "Framing John DeLorean",
        "genre_ids": [99, 18],
        "title": "Framing John DeLorean",
        "vote_average": 6.2,
        "overview": "A documentary interspersed with acted scenes, this portrait of John DeLorean covers the brilliant but tragically flawed automaker's rise to stardom and shocking down fall.",
        "release_date": "2019-06-07"
    }, {
        "popularity": 5.14,
        "vote_count": 60,
        "video": false,
        "poster_path": "\/e96ZHJ8ZgTSu0tCVUsVBWVjUaHx.jpg",
        "id": 5937,
        "adult": false,
        "backdrop_path": "\/aswmZ0JixLRM0eRiPHGXT6eaTJ.jpg",
        "original_language": "en",
        "original_title": "John Rabe",
        "genre_ids": [18, 36, 10752],
        "title": "John Rabe",
        "vote_average": 6.9,
        "overview": "A true-story account of a German businessman who saved more than 200,000 Chinese during the Nanjing massacre in 1937-38.",
        "release_date": "2009-04-02"
    }, {
        "popularity": 10.005,
        "vote_count": 427,
        "video": false,
        "poster_path": "\/zwNJp1WUriWjgAoCaOC1qEi6DCl.jpg",
        "id": 75761,
        "adult": false,
        "backdrop_path": "\/iAmTmSUzpxrxz1KJwhrXsdMFRfi.jpg",
        "original_language": "en",
        "original_title": "John Dies at the End",
        "genre_ids": [35, 27],
        "title": "John Dies at the End",
        "vote_average": 6.3,
        "overview": "A new drug promises out-of-body experiences, but users are coming back changed forever, and an otherworldly invasion of Earth is underway.",
        "release_date": "2012-01-23"
    }, {
        "popularity": 7.572,
        "vote_count": 0,
        "video": false,
        "poster_path": "\/kPsRQfoyYgcpbI6hvDQvUSCo0q3.jpg",
        "id": 603692,
        "adult": false,
        "backdrop_path": null,
        "original_language": "en",
        "original_title": "John Wick: Chapter 4",
        "genre_ids": [28, 80, 53],
        "title": "John Wick: Chapter 4",
        "vote_average": 0,
        "overview": "Continues where John Wick: Chapter 3 – Parabellum left off.",
        "release_date": "2022-05-25"
    }, {
        "popularity": 4.253,
        "vote_count": 30,
        "video": false,
        "poster_path": "\/bwSk0mr86hDSb72arBbSooaN65h.jpg",
        "id": 324150,
        "adult": false,
        "backdrop_path": "\/fBxFzgRR5WEc9V8ToqPxWhswyXR.jpg",
        "original_language": "en",
        "original_title": "Uncle John",
        "genre_ids": [80, 18, 9648],
        "title": "Uncle John",
        "vote_average": 5.9,
        "overview": "In this tale of small town intrigue, an urbanite returns to his quiet hometown on an impromptu trip as his Uncle, widely respected in town, struggles to evade suspicion of a murder.",
        "release_date": "2015-03-16"
    }, {
        "popularity": 6.144,
        "vote_count": 110,
        "video": false,
        "poster_path": "\/AmbFL6IYyyIMNuwbwCx8qolhAgD.jpg",
        "id": 32574,
        "adult": false,
        "backdrop_path": "\/fQZDPwPmuNf8ClcYW9F9cudUGvV.jpg",
        "original_language": "en",
        "original_title": "Meet John Doe",
        "genre_ids": [35, 18, 10749],
        "title": "Meet John Doe",
        "vote_average": 7.4,
        "overview": "As a parting shot, fired reporter Ann Mitchell prints a fake letter from unemployed \"John Doe,\" who threatens suicide in protest of social ills. The paper is forced to rehire Ann and hires John Willoughby to impersonate \"Doe.\" Ann and her bosses cynically milk the story for all it's worth, until the made-up \"John Doe\" philosophy starts a whole political movement.",
        "release_date": "1941-03-14"
    }, {
        "popularity": 6.143,
        "vote_count": 36,
        "video": false,
        "poster_path": "\/5rsQSNDyjPvliYhM2dtyNlEWeBd.jpg",
        "id": 26723,
        "adult": false,
        "backdrop_path": "\/uwNyHyxfk1a8hfw58I3MFCB4ya1.jpg",
        "original_language": "en",
        "original_title": "Imagine: John Lennon",
        "genre_ids": [99, 10402],
        "title": "Imagine: John Lennon",
        "vote_average": 7.4,
        "overview": "The biography of former Beatle, John Lennon—narrated by Lennon himself—with extensive material from Yoko Ono's personal collection, previously unseen footage from Lennon's private archives, and interviews with David Bowie, his first wife Cynthia, second wife Yoko Ono and sons Julian and Sean.",
        "release_date": "1988-10-07"
    }, {
        "popularity": 5.397,
        "vote_count": 86,
        "video": false,
        "poster_path": "\/bvWp3DtowJzfwaFgzgmNS38bnh6.jpg",
        "id": 253849,
        "adult": false,
        "backdrop_path": null,
        "original_language": "en",
        "original_title": "John Doe: Vigilante",
        "genre_ids": [80, 53],
        "title": "John Doe: Vigilante",
        "vote_average": 6.6,
        "overview": "When John Doe is convicted of being a vigilante serial killer, a vigilante group named 'Speak for the Dead' emerges in support of John's cause—elevating the debate about justice versus vengeance.",
        "release_date": "2014-03-21"
    }, {
        "popularity": 6.719,
        "vote_count": 33,
        "video": false,
        "poster_path": "\/jgSHjr5z1TTzQdiN9YXS7yXWSPQ.jpg",
        "id": 14201,
        "adult": false,
        "backdrop_path": "\/v4sG9F05Aj3OWIUZSPVXRbOLGt5.jpg",
        "original_language": "en",
        "original_title": "The U.S. vs. John Lennon",
        "genre_ids": [99],
        "title": "The U.S. vs. John Lennon",
        "vote_average": 6.6,
        "overview": "A documentary on the life of John Lennon, with a focus on the time in his life when he transformed from a musician into an antiwar activist.",
        "release_date": "2006-09-15"
    }, {
        "popularity": 8.667,
        "vote_count": 100,
        "video": false,
        "poster_path": "\/ufE8KAkLQT9u91AgDSc5Oxa3DjW.jpg",
        "id": 86705,
        "adult": false,
        "backdrop_path": "\/1DQUhxqRUw3yEPDLJE3zL0FYbEp.jpg",
        "original_language": "en",
        "original_title": "John Mulaney: New in Town",
        "genre_ids": [35],
        "title": "John Mulaney: New in Town",
        "vote_average": 8.3,
        "overview": "Stand-up comedian John Mulaney tackles such red-hot topics as quicksand, Motown singers and an elderly man he once met in a bathroom.",
        "release_date": "2012-01-31"
    }]
}